%!PS-Adobe-3.0 EPSF-3.0
%%Creator: MATLAB, The MathWorks, Inc. Version 7.14.0.739 (R2012a). Operating System: Linux 3.5.0-17-generic #28-Ubuntu SMP Tue Oct 9 19:31:23 UTC 2012 x86_64.
%%Title: /home/anastasisos/Desktop/ddm22/codeHector/cir3.eps
%%CreationDate: 01/22/2014  16:22:00
%%DocumentNeededFonts: Helvetica
%%DocumentProcessColors: Cyan Magenta Yellow Black
%%LanguageLevel: 2
%%Pages: 1
%%BoundingBox:   131   292   463   549
%%EndComments

%%BeginProlog
% MathWorks dictionary
/MathWorks 160 dict begin
% definition operators
/bdef {bind def} bind def
/ldef {load def} bind def
/xdef {exch def} bdef
/xstore {exch store} bdef
% operator abbreviations
/c  /clip ldef
/cc /concat ldef
/cp /closepath ldef
/gr /grestore ldef
/gs /gsave ldef
/mt /moveto ldef
/np /newpath ldef
/cm /currentmatrix ldef
/sm /setmatrix ldef
/rm /rmoveto ldef
/rl /rlineto ldef
/s {show newpath} bdef
/sc {setcmykcolor} bdef
/sr /setrgbcolor ldef
/sg /setgray ldef
/w /setlinewidth ldef
/j /setlinejoin ldef
/cap /setlinecap ldef
/rc {rectclip} bdef
/rf {rectfill} bdef
% page state control
/pgsv () def
/bpage {/pgsv save def} bdef
/epage {pgsv restore} bdef
/bplot /gsave ldef
/eplot {stroke grestore} bdef
% orientation switch
/portraitMode 0 def /landscapeMode 1 def /rotateMode 2 def
% coordinate system mappings
/dpi2point 0 def
% font control
/FontSize 0 def
/FMS {/FontSize xstore findfont [FontSize 0 0 FontSize neg 0 0]
  makefont setfont} bdef
/reencode {exch dup where {pop load} {pop StandardEncoding} ifelse
  exch dup 3 1 roll findfont dup length dict begin
  { 1 index /FID ne {def}{pop pop} ifelse } forall
  /Encoding exch def currentdict end definefont pop} bdef
/isroman {findfont /CharStrings get /Agrave known} bdef
/FMSR {3 1 roll 1 index dup isroman {reencode} {pop pop} ifelse
  exch FMS} bdef
/csm {1 dpi2point div -1 dpi2point div scale neg translate
 dup landscapeMode eq {pop -90 rotate}
  {rotateMode eq {90 rotate} if} ifelse} bdef
% line types: solid, dotted, dashed, dotdash
/SO { [] 0 setdash } bdef
/DO { [.5 dpi2point mul 4 dpi2point mul] 0 setdash } bdef
/DA { [6 dpi2point mul] 0 setdash } bdef
/DD { [.5 dpi2point mul 4 dpi2point mul 6 dpi2point mul 4
  dpi2point mul] 0 setdash } bdef
% macros for lines and objects
/L {lineto stroke} bdef
/MP {3 1 roll moveto 1 sub {rlineto} repeat} bdef
/AP {{rlineto} repeat} bdef
/PDlw -1 def
/W {/PDlw currentlinewidth def setlinewidth} def
/PP {closepath eofill} bdef
/DP {closepath stroke} bdef
/MR {4 -2 roll moveto dup  0 exch rlineto exch 0 rlineto
  neg 0 exch rlineto closepath} bdef
/FR {MR stroke} bdef
/PR {MR fill} bdef
/L1i {{currentfile picstr readhexstring pop} image} bdef
/tMatrix matrix def
/MakeOval {newpath tMatrix currentmatrix pop translate scale
0 0 1 0 360 arc tMatrix setmatrix} bdef
/FO {MakeOval stroke} bdef
/PO {MakeOval fill} bdef
/PD {currentlinewidth 2 div 0 360 arc fill
   PDlw -1 eq not {PDlw w /PDlw -1 def} if} def
/FA {newpath tMatrix currentmatrix pop translate scale
  0 0 1 5 -2 roll arc tMatrix setmatrix stroke} bdef
/PA {newpath tMatrix currentmatrix pop	translate 0 0 moveto scale
  0 0 1 5 -2 roll arc closepath tMatrix setmatrix fill} bdef
/FAn {newpath tMatrix currentmatrix pop translate scale
  0 0 1 5 -2 roll arcn tMatrix setmatrix stroke} bdef
/PAn {newpath tMatrix currentmatrix pop translate 0 0 moveto scale
  0 0 1 5 -2 roll arcn closepath tMatrix setmatrix fill} bdef
/vradius 0 def /hradius 0 def /lry 0 def
/lrx 0 def /uly 0 def /ulx 0 def /rad 0 def
/MRR {/vradius xdef /hradius xdef /lry xdef /lrx xdef /uly xdef
  /ulx xdef newpath tMatrix currentmatrix pop ulx hradius add uly
  vradius add translate hradius vradius scale 0 0 1 180 270 arc 
  tMatrix setmatrix lrx hradius sub uly vradius add translate
  hradius vradius scale 0 0 1 270 360 arc tMatrix setmatrix
  lrx hradius sub lry vradius sub translate hradius vradius scale
  0 0 1 0 90 arc tMatrix setmatrix ulx hradius add lry vradius sub
  translate hradius vradius scale 0 0 1 90 180 arc tMatrix setmatrix
  closepath} bdef
/FRR {MRR stroke } bdef
/PRR {MRR fill } bdef
/MlrRR {/lry xdef /lrx xdef /uly xdef /ulx xdef /rad lry uly sub 2 div def
  newpath tMatrix currentmatrix pop ulx rad add uly rad add translate
  rad rad scale 0 0 1 90 270 arc tMatrix setmatrix lrx rad sub lry rad
  sub translate rad rad scale 0 0 1 270 90 arc tMatrix setmatrix
  closepath} bdef
/FlrRR {MlrRR stroke } bdef
/PlrRR {MlrRR fill } bdef
/MtbRR {/lry xdef /lrx xdef /uly xdef /ulx xdef /rad lrx ulx sub 2 div def
  newpath tMatrix currentmatrix pop ulx rad add uly rad add translate
  rad rad scale 0 0 1 180 360 arc tMatrix setmatrix lrx rad sub lry rad
  sub translate rad rad scale 0 0 1 0 180 arc tMatrix setmatrix
  closepath} bdef
/FtbRR {MtbRR stroke } bdef
/PtbRR {MtbRR fill } bdef
/stri 6 array def /dtri 6 array def
/smat 6 array def /dmat 6 array def
/tmat1 6 array def /tmat2 6 array def /dif 3 array def
/asub {/ind2 exch def /ind1 exch def dup dup
  ind1 get exch ind2 get sub exch } bdef
/tri_to_matrix {
  2 0 asub 3 1 asub 4 0 asub 5 1 asub
  dup 0 get exch 1 get 7 -1 roll astore } bdef
/compute_transform {
  dmat dtri tri_to_matrix tmat1 invertmatrix 
  smat stri tri_to_matrix tmat2 concatmatrix } bdef
/ds {stri astore pop} bdef
/dt {dtri astore pop} bdef
/db {2 copy /cols xdef /rows xdef mul dup 3 mul string
  currentfile 
  3 index 0 eq {/ASCIIHexDecode filter}
  {/ASCII85Decode filter 3 index 2 eq {/RunLengthDecode filter} if }
  ifelse exch readstring pop
  dup 0 3 index getinterval /rbmap xdef
  dup 2 index dup getinterval /gbmap xdef
  1 index dup 2 mul exch getinterval /bbmap xdef pop pop}bdef
/it {gs np dtri aload pop moveto lineto lineto cp c
  cols rows 8 compute_transform 
  rbmap gbmap bbmap true 3 colorimage gr}bdef
/il {newpath moveto lineto stroke}bdef
currentdict end def
%%EndProlog

%%BeginSetup
MathWorks begin

0 cap

end
%%EndSetup

%%Page: 1 1
%%BeginPageSetup
%%PageBoundingBox:   131   292   463   549
MathWorks begin
bpage
%%EndPageSetup

%%BeginObject: obj1
bplot

/dpi2point 12 def
portraitMode 1572 6588 csm

    0     0  3985  3082 rc
85 dict begin %Colortable dictionary
/c0 { 0.000000 0.000000 0.000000 sr} bdef
/c1 { 1.000000 1.000000 1.000000 sr} bdef
/c2 { 0.900000 0.000000 0.000000 sr} bdef
/c3 { 0.000000 0.820000 0.000000 sr} bdef
/c4 { 0.000000 0.000000 0.800000 sr} bdef
/c5 { 0.910000 0.820000 0.320000 sr} bdef
/c6 { 1.000000 0.260000 0.820000 sr} bdef
/c7 { 0.000000 0.820000 0.820000 sr} bdef
c0
1 j
1 sg
   0    0 3986 3083 rf
6 w
0 2512 3088 0 0 -2512 518 2743 4 MP
PP
-3088 0 0 2512 3088 0 0 -2512 518 2743 5 MP stroke
4 w
DO
SO
6 w
0 sg
 518 2743 mt 3606 2743 L
 518 2743 mt  518  231 L
 518 2743 mt  518 2712 L
%%IncludeResource: font Helvetica
/Helvetica /ISOLatin1Encoding 120 FMSR

 415 2888 mt 
(-1) s
1290 2743 mt 1290 2712 L
1137 2888 mt 
(-0.5) s
2062 2743 mt 2062 2712 L
2029 2888 mt 
(0) s
2834 2743 mt 2834 2712 L
2751 2888 mt 
(0.5) s
3606 2743 mt 3606 2712 L
3573 2888 mt 
(1) s
 518 2743 mt  548 2743 L
 347 2787 mt 
(-1) s
 518 2491 mt  548 2491 L
 247 2535 mt 
(-0.8) s
 518 2240 mt  548 2240 L
 247 2284 mt 
(-0.6) s
 518 1989 mt  548 1989 L
 247 2033 mt 
(-0.4) s
 518 1738 mt  548 1738 L
 247 1782 mt 
(-0.2) s
 518 1487 mt  548 1487 L
 417 1531 mt 
(0) s
 518 1235 mt  548 1235 L
 317 1279 mt 
(0.2) s
 518  984 mt  548  984 L
 317 1028 mt 
(0.4) s
 518  733 mt  548  733 L
 317  777 mt 
(0.6) s
 518  482 mt  548  482 L
 317  526 mt 
(0.8) s
 518  231 mt  548  231 L
 417  275 mt 
(1) s
gs 518 231 3089 2513 rc
147 495 -492 -165 345 -330 1437 2186 4 MP stroke
170 426 -450 -57 280 -369 1782 1856 4 MP stroke
322 -261 356 503 -678 -242 1612 1430 4 MP stroke
538 -110 122 440 -660 -330 1472 1078 4 MP stroke
-477 337 -95 -554 572 217 2062 629 4 MP stroke
-625 -139 478 -356 147 495 1437 2186 4 MP stroke
-625 165 478 -534 147 369 665 1856 4 MP stroke
-345 330 -280 -469 625 139 1437 2186 4 MP stroke
-444 525 -134 -461 578 -64 2390 1906 4 MP stroke
-478 356 -477 -356 955 0 1584 2681 4 MP stroke
-824 -271 624 -264 200 535 2634 846 4 MP stroke
328 419 -772 106 444 -525 2390 1906 4 MP stroke
-625 39 -147 -495 772 456 812 2225 4 MP stroke
678 242 -538 110 -140 -352 1612 1430 4 MP stroke
625 -165 147 369 -772 -204 1290 1691 4 MP stroke
-328 -419 608 50 -280 369 2062 1487 4 MP stroke
568 -33 -225 416 -343 -383 3311 2225 4 MP stroke
625 -39 -478 534 -147 -495 1437 2186 4 MP stroke
328 -419 280 469 -608 -50 2390 1906 4 MP stroke
204 -423 477 356 -681 67 2743 2258 4 MP stroke
134 461 -772 -106 638 -355 2968 1842 4 MP stroke
-147 -369 824 271 -677 98 3311 748 4 MP stroke
95 554 -772 -456 677 -98 2634 846 4 MP stroke
772 -106 -102 429 -670 -323 2834 1381 4 MP stroke
-766 58 106 -388 660 330 812 748 4 MP stroke
353 352 -578 64 225 -416 2743 2258 4 MP stroke
295 -738 343 383 -638 355 3606 1487 4 MP stroke
-328 419 -353 -352 681 -67 2062 2325 4 MP stroke
772 -456 -204 423 -568 33 3311 2225 4 MP stroke
477 -337 478 337 -955 0 2539 292 4 MP stroke
-624 264 -148 -370 772 106 2834 1381 4 MP stroke
670 323 -470 212 -200 -535 2834 1381 4 MP stroke
-478 -337 484 -61 -6 398 1584 292 4 MP stroke
-692 20 552 -372 140 352 1472 1078 4 MP stroke
-772 456 6 -398 766 -58 812 748 4 MP stroke
692 -20 -106 388 -586 -368 2164 1058 4 MP stroke
470 -212 102 429 -572 -217 2634 846 4 MP stroke
586 368 -484 61 -102 -429 2164 1058 4 MP stroke
-122 -440 416 -299 -294 739 812 748 4 MP stroke
772 204 -416 299 -356 -503 1290 1691 4 MP stroke
492 165 -322 261 -170 -426 1782 1856 4 MP stroke
102 -429 450 57 -552 372 2164 1058 4 MP stroke
gr


end %%Color Dict

eplot
%%EndObject

epage
end

showpage

%%Trailer
%%EOF
