%!PS-Adobe-3.0 EPSF-3.0
%%Creator: MATLAB, The MathWorks, Inc. Version 7.14.0.739 (R2012a). Operating System: Linux 3.5.0-17-generic #28-Ubuntu SMP Tue Oct 9 19:31:23 UTC 2012 x86_64.
%%Title: /home/anastasisos/Desktop/ddm22/codeHector/circ.eps
%%CreationDate: 01/22/2014  15:01:00
%%DocumentNeededFonts: Helvetica
%%DocumentProcessColors: Cyan Magenta Yellow Black
%%LanguageLevel: 2
%%Pages: 1
%%BoundingBox:   143   295   451   545
%%EndComments

%%BeginProlog
% MathWorks dictionary
/MathWorks 160 dict begin
% definition operators
/bdef {bind def} bind def
/ldef {load def} bind def
/xdef {exch def} bdef
/xstore {exch store} bdef
% operator abbreviations
/c  /clip ldef
/cc /concat ldef
/cp /closepath ldef
/gr /grestore ldef
/gs /gsave ldef
/mt /moveto ldef
/np /newpath ldef
/cm /currentmatrix ldef
/sm /setmatrix ldef
/rm /rmoveto ldef
/rl /rlineto ldef
/s {show newpath} bdef
/sc {setcmykcolor} bdef
/sr /setrgbcolor ldef
/sg /setgray ldef
/w /setlinewidth ldef
/j /setlinejoin ldef
/cap /setlinecap ldef
/rc {rectclip} bdef
/rf {rectfill} bdef
% page state control
/pgsv () def
/bpage {/pgsv save def} bdef
/epage {pgsv restore} bdef
/bplot /gsave ldef
/eplot {stroke grestore} bdef
% orientation switch
/portraitMode 0 def /landscapeMode 1 def /rotateMode 2 def
% coordinate system mappings
/dpi2point 0 def
% font control
/FontSize 0 def
/FMS {/FontSize xstore findfont [FontSize 0 0 FontSize neg 0 0]
  makefont setfont} bdef
/reencode {exch dup where {pop load} {pop StandardEncoding} ifelse
  exch dup 3 1 roll findfont dup length dict begin
  { 1 index /FID ne {def}{pop pop} ifelse } forall
  /Encoding exch def currentdict end definefont pop} bdef
/isroman {findfont /CharStrings get /Agrave known} bdef
/FMSR {3 1 roll 1 index dup isroman {reencode} {pop pop} ifelse
  exch FMS} bdef
/csm {1 dpi2point div -1 dpi2point div scale neg translate
 dup landscapeMode eq {pop -90 rotate}
  {rotateMode eq {90 rotate} if} ifelse} bdef
% line types: solid, dotted, dashed, dotdash
/SO { [] 0 setdash } bdef
/DO { [.5 dpi2point mul 4 dpi2point mul] 0 setdash } bdef
/DA { [6 dpi2point mul] 0 setdash } bdef
/DD { [.5 dpi2point mul 4 dpi2point mul 6 dpi2point mul 4
  dpi2point mul] 0 setdash } bdef
% macros for lines and objects
/L {lineto stroke} bdef
/MP {3 1 roll moveto 1 sub {rlineto} repeat} bdef
/AP {{rlineto} repeat} bdef
/PDlw -1 def
/W {/PDlw currentlinewidth def setlinewidth} def
/PP {closepath eofill} bdef
/DP {closepath stroke} bdef
/MR {4 -2 roll moveto dup  0 exch rlineto exch 0 rlineto
  neg 0 exch rlineto closepath} bdef
/FR {MR stroke} bdef
/PR {MR fill} bdef
/L1i {{currentfile picstr readhexstring pop} image} bdef
/tMatrix matrix def
/MakeOval {newpath tMatrix currentmatrix pop translate scale
0 0 1 0 360 arc tMatrix setmatrix} bdef
/FO {MakeOval stroke} bdef
/PO {MakeOval fill} bdef
/PD {currentlinewidth 2 div 0 360 arc fill
   PDlw -1 eq not {PDlw w /PDlw -1 def} if} def
/FA {newpath tMatrix currentmatrix pop translate scale
  0 0 1 5 -2 roll arc tMatrix setmatrix stroke} bdef
/PA {newpath tMatrix currentmatrix pop	translate 0 0 moveto scale
  0 0 1 5 -2 roll arc closepath tMatrix setmatrix fill} bdef
/FAn {newpath tMatrix currentmatrix pop translate scale
  0 0 1 5 -2 roll arcn tMatrix setmatrix stroke} bdef
/PAn {newpath tMatrix currentmatrix pop translate 0 0 moveto scale
  0 0 1 5 -2 roll arcn closepath tMatrix setmatrix fill} bdef
/vradius 0 def /hradius 0 def /lry 0 def
/lrx 0 def /uly 0 def /ulx 0 def /rad 0 def
/MRR {/vradius xdef /hradius xdef /lry xdef /lrx xdef /uly xdef
  /ulx xdef newpath tMatrix currentmatrix pop ulx hradius add uly
  vradius add translate hradius vradius scale 0 0 1 180 270 arc 
  tMatrix setmatrix lrx hradius sub uly vradius add translate
  hradius vradius scale 0 0 1 270 360 arc tMatrix setmatrix
  lrx hradius sub lry vradius sub translate hradius vradius scale
  0 0 1 0 90 arc tMatrix setmatrix ulx hradius add lry vradius sub
  translate hradius vradius scale 0 0 1 90 180 arc tMatrix setmatrix
  closepath} bdef
/FRR {MRR stroke } bdef
/PRR {MRR fill } bdef
/MlrRR {/lry xdef /lrx xdef /uly xdef /ulx xdef /rad lry uly sub 2 div def
  newpath tMatrix currentmatrix pop ulx rad add uly rad add translate
  rad rad scale 0 0 1 90 270 arc tMatrix setmatrix lrx rad sub lry rad
  sub translate rad rad scale 0 0 1 270 90 arc tMatrix setmatrix
  closepath} bdef
/FlrRR {MlrRR stroke } bdef
/PlrRR {MlrRR fill } bdef
/MtbRR {/lry xdef /lrx xdef /uly xdef /ulx xdef /rad lrx ulx sub 2 div def
  newpath tMatrix currentmatrix pop ulx rad add uly rad add translate
  rad rad scale 0 0 1 180 360 arc tMatrix setmatrix lrx rad sub lry rad
  sub translate rad rad scale 0 0 1 0 180 arc tMatrix setmatrix
  closepath} bdef
/FtbRR {MtbRR stroke } bdef
/PtbRR {MtbRR fill } bdef
/stri 6 array def /dtri 6 array def
/smat 6 array def /dmat 6 array def
/tmat1 6 array def /tmat2 6 array def /dif 3 array def
/asub {/ind2 exch def /ind1 exch def dup dup
  ind1 get exch ind2 get sub exch } bdef
/tri_to_matrix {
  2 0 asub 3 1 asub 4 0 asub 5 1 asub
  dup 0 get exch 1 get 7 -1 roll astore } bdef
/compute_transform {
  dmat dtri tri_to_matrix tmat1 invertmatrix 
  smat stri tri_to_matrix tmat2 concatmatrix } bdef
/ds {stri astore pop} bdef
/dt {dtri astore pop} bdef
/db {2 copy /cols xdef /rows xdef mul dup 3 mul string
  currentfile 
  3 index 0 eq {/ASCIIHexDecode filter}
  {/ASCII85Decode filter 3 index 2 eq {/RunLengthDecode filter} if }
  ifelse exch readstring pop
  dup 0 3 index getinterval /rbmap xdef
  dup 2 index dup getinterval /gbmap xdef
  1 index dup 2 mul exch getinterval /bbmap xdef pop pop}bdef
/it {gs np dtri aload pop moveto lineto lineto cp c
  cols rows 8 compute_transform 
  rbmap gbmap bbmap true 3 colorimage gr}bdef
/il {newpath moveto lineto stroke}bdef
currentdict end def
%%EndProlog

%%BeginSetup
MathWorks begin

0 cap

end
%%EndSetup

%%Page: 1 1
%%BeginPageSetup
%%PageBoundingBox:   143   295   451   545
MathWorks begin
bpage
%%EndPageSetup

%%BeginObject: obj1
bplot

/dpi2point 12 def
portraitMode 1716 6540 csm

    0     0  3697  2996 rc
85 dict begin %Colortable dictionary
/c0 { 0.000000 0.000000 0.000000 sr} bdef
/c1 { 1.000000 1.000000 1.000000 sr} bdef
/c2 { 0.900000 0.000000 0.000000 sr} bdef
/c3 { 0.000000 0.820000 0.000000 sr} bdef
/c4 { 0.000000 0.000000 0.800000 sr} bdef
/c5 { 0.910000 0.820000 0.320000 sr} bdef
/c6 { 1.000000 0.260000 0.820000 sr} bdef
/c7 { 0.000000 0.820000 0.820000 sr} bdef
c0
1 j
1 sg
   0    0 3698 2997 rf
6 w
0 2441 2865 0 0 -2441 481 2666 4 MP
PP
-2865 0 0 2441 2865 0 0 -2441 481 2666 5 MP stroke
4 w
DO
SO
6 w
0 sg
 481 2666 mt 3346 2666 L
 481  225 mt 3346  225 L
 481 2666 mt  481  225 L
3346 2666 mt 3346  225 L
 481 2666 mt 3346 2666 L
 481 2666 mt  481  225 L
 481 2666 mt  481 2637 L
 481  225 mt  481  253 L
%%IncludeResource: font Helvetica
/Helvetica /ISOLatin1Encoding 120 FMSR

 378 2811 mt 
(-1) s
1197 2666 mt 1197 2637 L
1197  225 mt 1197  253 L
1044 2811 mt 
(-0.5) s
1913 2666 mt 1913 2637 L
1913  225 mt 1913  253 L
1880 2811 mt 
(0) s
2629 2666 mt 2629 2637 L
2629  225 mt 2629  253 L
2546 2811 mt 
(0.5) s
3346 2666 mt 3346 2637 L
3346  225 mt 3346  253 L
3313 2811 mt 
(1) s
 481 2666 mt  509 2666 L
3346 2666 mt 3317 2666 L
 310 2710 mt 
(-1) s
 481 2055 mt  509 2055 L
3346 2055 mt 3317 2055 L
 210 2099 mt 
(-0.5) s
 481 1445 mt  509 1445 L
3346 1445 mt 3317 1445 L
 380 1489 mt 
(0) s
 481  835 mt  509  835 L
3346  835 mt 3317  835 L
 280  879 mt 
(0.5) s
 481  225 mt  509  225 L
3346  225 mt 3317  225 L
 380  269 mt 
(1) s
 481 2666 mt 3346 2666 L
 481  225 mt 3346  225 L
 481 2666 mt  481  225 L
3346 2666 mt 3346  225 L
gs 481 225 2866 2442 rc
137 482 -457 -161 320 -321 1334 2125 4 MP stroke
158 414 -417 -55 259 -359 1654 1804 4 MP stroke
299 -253 330 488 -629 -235 1496 1390 4 MP stroke
499 -107 113 427 -612 -320 1366 1048 4 MP stroke
-443 327 -88 -538 531 211 1913 611 4 MP stroke
-579 -135 443 -346 136 481 1334 2125 4 MP stroke
-580 161 443 -519 137 358 617 1804 4 MP stroke
-320 321 -259 -456 579 135 1334 2125 4 MP stroke
-411 510 -125 -448 536 -62 2218 1852 4 MP stroke
-443 346 -443 -346 886 0 1470 2606 4 MP stroke
-765 -264 580 -256 185 520 2444 822 4 MP stroke
305 407 -716 103 411 -510 2218 1852 4 MP stroke
-580 37 -136 -481 716 444 754 2162 4 MP stroke
629 235 -499 107 -130 -342 1496 1390 4 MP stroke
580 -161 136 359 -716 -198 1197 1643 4 MP stroke
-305 -407 564 48 -259 359 1913 1445 4 MP stroke
526 -33 -208 405 -318 -372 3072 2162 4 MP stroke
580 -37 -443 519 -137 -482 1334 2125 4 MP stroke
305 -408 259 456 -564 -48 2218 1852 4 MP stroke
190 -411 443 346 -633 65 2546 2195 4 MP stroke
125 448 -717 -103 592 -345 2754 1790 4 MP stroke
-137 -358 765 264 -628 94 3072 728 4 MP stroke
88 538 -716 -444 628 -94 2444 822 4 MP stroke
716 -103 -95 417 -621 -314 2629 1342 4 MP stroke
-711 57 99 -377 612 320 754 728 4 MP stroke
328 343 -536 62 208 -405 2546 2195 4 MP stroke
274 -717 318 372 -592 345 3346 1445 4 MP stroke
-305 408 -328 -343 633 -65 1913 2260 4 MP stroke
716 -444 -190 411 -526 33 3072 2162 4 MP stroke
443 -327 443 327 -886 0 2356 284 4 MP stroke
-580 256 -137 -359 717 103 2629 1342 4 MP stroke
621 314 -436 206 -185 -520 2629 1342 4 MP stroke
-443 -327 448 -60 -5 387 1470 284 4 MP stroke
-642 20 512 -362 130 342 1366 1048 4 MP stroke
-716 444 5 -387 711 -57 754 728 4 MP stroke
642 -20 -99 377 -543 -357 2008 1028 4 MP stroke
436 -206 95 417 -531 -211 2444 822 4 MP stroke
543 357 -448 60 -95 -417 2008 1028 4 MP stroke
-113 -427 386 -290 -273 717 754 728 4 MP stroke
716 198 -386 290 -330 -488 1197 1643 4 MP stroke
457 161 -299 253 -158 -414 1654 1804 4 MP stroke
95 -417 417 55 -512 362 2008 1028 4 MP stroke
gr


end %%Color Dict

eplot
%%EndObject

epage
end

showpage

%%Trailer
%%EOF
